…
``` r
trash = read_excel("prob1_data/Trash-Wheel-Collection-Totals-8-6-19.xlsx", 
                   sheet = "Mr. Trash Wheel",
                   cell_cols("A:N")) %>% 
  janitor::clean_names() %>% 
  drop_na(year) %>% #drop rows with NAs that are just totals; not dumpster-specific
  mutate(rnd_sb = as.integer(round(sports_balls, 0)))
  
trash
```

    ## # A tibble: 344 x 15
    ##    dumpster month  year date                weight_tons volume_cubic_ya…
    ##       <dbl> <chr> <dbl> <dttm>                    <dbl>            <dbl>
    ##  1        1 May    2014 2014-05-16 00:00:00        4.31               18
    ##  2        2 May    2014 2014-05-16 00:00:00        2.74               13
    ##  3        3 May    2014 2014-05-16 00:00:00        3.45               15
    ##  4        4 May    2014 2014-05-17 00:00:00        3.1                15
    ##  5        5 May    2014 2014-05-17 00:00:00        4.06               18
    ##  6        6 May    2014 2014-05-20 00:00:00        2.71               13
    ##  7        7 May    2014 2014-05-21 00:00:00        1.91                8
    ##  8        8 May    2014 2014-05-28 00:00:00        3.7                16
    ##  9        9 June   2014 2014-06-05 00:00:00        2.52               14
    ## 10       10 June   2014 2014-06-11 00:00:00        3.76               18
    ## # … with 334 more rows, and 9 more variables: plastic_bottles <dbl>,
    ## #   polystyrene <dbl>, cigarette_butts <dbl>, glass_bottles <dbl>,
    ## #   grocery_bags <dbl>, chip_bags <dbl>, sports_balls <dbl>,
    ## #   homes_powered <dbl>, rnd_sb <int>
…
``` r
# bind tbls
precip_17_18 <- bind_rows(precip_17, precip_18) %>%
  mutate(month = month.name[month])
precip_17_18
```

    ## # A tibble: 24 x 3
    ##    month     total  year
    ##    <chr>     <dbl> <dbl>
    ##  1 January    2.34  2017
    ##  2 February   1.46  2017
    ##  3 March      3.57  2017
    ##  4 April      3.99  2017
    ##  5 May        5.64  2017
    ##  6 June       1.4   2017
    ##  7 July       7.09  2017
    ##  8 August     4.44  2017
    ##  9 September  1.95  2017
    ## 10 October    0     2017
    ## # … with 14 more rows
…
``` r
tidy_transit <- transit_dta %>% 
  mutate_if(is.numeric, as.character) %>%  # convert numeric route columns to characters to avoid errors later
  pivot_longer(route1:route11,
               names_to = "route",
               values_to = "route_name") %>%
  drop_na() %>%  # drop NA rows, these are extra rows that don't contain route at specific station entrance/exit when we tidied data
  distinct(line, station_name, route_name,
           .keep_all = TRUE) # pull distinct line, station_name, and routes at these stations
tidy_transit
```

    ## # A tibble: 981 x 10
    ##    line  station_name station_latitude station_longitu… entry vending
    ##    <chr> <chr>        <chr>            <chr>            <lgl> <chr>  
    ##  1 4 Av… 25th St      40.660397        -73.998091       TRUE  YES    
    ##  2 4 Av… 36th St      40.655144        -74.003549       TRUE  YES    
    ##  3 4 Av… 36th St      40.655144        -74.003549       TRUE  YES    
    ##  4 4 Av… 45th St      40.648939        -74.010006       TRUE  YES    
    ##  5 4 Av… 53rd St      40.645069        -74.014034       TRUE  YES    
    ##  6 4 Av… 59th St      40.641362        -74.017881       TRUE  YES    
    ##  7 4 Av… 59th St      40.641362        -74.017881       TRUE  YES    
    ##  8 4 Av… 77th St      40.629742        -74.02551        TRUE  YES    
    ##  9 4 Av… 86th St      40.622687        -74.028398       TRUE  YES    
    ## 10 4 Av… 95th St      40.616622        -74.030876       TRUE  YES    
    ## # … with 971 more rows, and 4 more variables: entrance_type <chr>, ada <lgl>,
    ## #   route <chr>, route_name <chr>
…
``` r
pols
```

    ## # A tibble: 822 x 9
    ##    year  month     gov_gop sen_gop rep_gop gov_dem sen_dem rep_dem president
    ##    <chr> <chr>       <dbl>   <dbl>   <dbl>   <dbl>   <dbl>   <dbl> <chr>    
    ##  1 1947  January        23      51     253      23      45     198 dem      
    ##  2 1947  February       23      51     253      23      45     198 dem      
    ##  3 1947  March          23      51     253      23      45     198 dem      
    ##  4 1947  April          23      51     253      23      45     198 dem      
    ##  5 1947  May            23      51     253      23      45     198 dem      
    ##  6 1947  June           23      51     253      23      45     198 dem      
    ##  7 1947  July           23      51     253      23      45     198 dem      
    ##  8 1947  August         23      51     253      23      45     198 dem      
    ##  9 1947  September      23      51     253      23      45     198 dem      
    ## 10 1947  October        23      51     253      23      45     198 dem      
    ## # … with 812 more rows
…
    ## Parsed with column specification:
    ## cols(
    ##   date = col_character(),
    ##   close = col_double()
    ## )

``` r
snp
```

    ## # A tibble: 787 x 3
    ##    year  month    close
    ##    <chr> <chr>    <dbl>
    ##  1 2015  July     2080.
    ##  2 2015  June     2063.
    ##  3 2015  May      2107.
    ##  4 2015  April    2086.
    ##  5 2015  March    2068.
    ##  6 2015  February 2104.
    ##  7 2015  January  1995.
    ##  8 2014  December 2059.
    ##  9 2014  November 2068.
    ## 10 2014  October  2018.
    ## # … with 777 more rows
…
``` r
unemployment
```

    ## # A tibble: 816 x 3
    ##    year  month     value
    ##    <chr> <chr>     <dbl>
    ##  1 1948  January     3.4
    ##  2 1948  February    3.8
    ##  3 1948  March       4  
    ##  4 1948  April       3.9
    ##  5 1948  May         3.5
    ##  6 1948  June        3.6
    ##  7 1948  July        3.6
    ##  8 1948  August      3.9
    ##  9 1948  September   3.8
    ## 10 1948  October     3.7
    ## # … with 806 more rows

``` r
# merge snp to pols and merge unemployment into this
joined_dta <- left_join(pols, snp) %>% left_join(unemployment)
```

    ## Joining, by = c("year", "month")
    ## Joining, by = c("year", "month")

``` r
joined_dta
```

    ## # A tibble: 822 x 11
    ##    year  month gov_gop sen_gop rep_gop gov_dem sen_dem rep_dem president close
    ##    <chr> <chr>   <dbl>   <dbl>   <dbl>   <dbl>   <dbl>   <dbl> <chr>     <dbl>
    ##  1 1947  Janu…      23      51     253      23      45     198 dem          NA
    ##  2 1947  Febr…      23      51     253      23      45     198 dem          NA
    ##  3 1947  March      23      51     253      23      45     198 dem          NA
    ##  4 1947  April      23      51     253      23      45     198 dem          NA
    ##  5 1947  May        23      51     253      23      45     198 dem          NA
    ##  6 1947  June       23      51     253      23      45     198 dem          NA
    ##  7 1947  July       23      51     253      23      45     198 dem          NA
    ##  8 1947  Augu…      23      51     253      23      45     198 dem          NA
    ##  9 1947  Sept…      23      51     253      23      45     198 dem          NA
    ## 10 1947  Octo…      23      51     253      23      45     198 dem          NA
    ## # … with 812 more rows, and 1 more variable: value <dbl>
…
